{"content":[{"id":149377,"parentId":149377,"externalId":"TSK_1800000","header":"Вода не нагревается","text":"MX request","priority":"Низкий","createDate":1574766392793,"lastEditDate":1574766392798,"state":"Выполняется","stateId":1,"viewed":true,"syncMask":"PORTAL_ONLY","files":[{"id":4659,"name":"C:\\Users\\student\\Documents\\mx\\LoadRunner\\XDesk\\files\\task_details_1.txt"}],"isSpecialistDate":false,"ticketState":"Выполняется","ticketStateId":1,"applicant":{"fullName":"Алексей Карчевский","userName":"master","email":"a.karchevski@pflb.ru","location":"142784, г.Москва, Киевское шоссе, 22-й км,\nБП ComCity, домовл.6, стр.1","phone":"8 (000) 123-45-67","mobilePhone":"8 (000) 123-45-67","id":106},"contractor":{"id":9,"name":"2-Ремонт","organization":"Холодильное оборудование","company":"YYY","active":true},"categories":["Инженерия","Сантехника","Водонагреватели"],"category1":"Инженерия","category2":"Сантехника","category3":"Водонагреватели","location":"256 Бинарная ул. 16","address":"256 Бинарная ул. 16","hasAttachments":true,"actions":["assignContractor","solveTicket","cancelTicket","cancelTask","inventoryNumberChange","slaDateChange","specialistDateChange","comment"]},{"id":149376,"parentId":149376,"externalId":"TSK_1800000","header":"Засор канализации, труб в магазине","text":"MX request","priority":"Низкий","createDate":1574766323319,"lastEditDate":1574766323324,"state":"Выполняется","stateId":1,"viewed":true,"syncMask":"PORTAL_ONLY","files":[{"id":4658,"name":"C:\\Users\\student\\Documents\\mx\\LoadRunner\\XDesk\\files\\task_details_3.txt"}],"isSpecialistDate":false,"ticketState":"Выполняется","ticketStateId":1,"inventoryNumber":"000006","applicant":{"fullName":"Алексей Карчевский","userName":"master","email":"a.karchevski@pflb.ru","location":"142784, г.Москва, Киевское шоссе, 22-й км,\nБП ComCity, домовл.6, стр.1","phone":"8 (000) 123-45-67","mobilePhone":"8 (000) 123-45-67","id":106},"contractor":{"id":9,"name":"2-Ремонт","organization":"Холодильное оборудование","company":"YYY","active":true},"categories":["Инженерия","Сантехника","Канализация, трубы (слив воды)"],"category1":"Инженерия","category2":"Сантехника","category3":"Канализация, трубы (слив воды)","location":"Барклая 24","address":"Барклая 24","hasAttachments":true,"actions":["assignContractor","solveTicket","cancelTicket","cancelTask","inventoryNumberChange","slaDateChange","specialistDateChange","comment"]},{"id":149371,"parentId":149371,"externalId":"TSK_1800000","header":"Холодильник издаёт посторонние звуки","text":"MX request","priority":"Низкий","createDate":1574764691200,"lastEditDate":1574764691205,"state":"Выполняется","stateId":1,"viewed":true,"syncMask":"PORTAL_ONLY","files":[{"id":4653,"name":"C:\\Users\\student\\Documents\\mx\\LoadRunner\\XDesk\\files\\task_details_2.txt"}],"isSpecialistDate":false,"ticketState":"Выполняется","ticketStateId":1,"inventoryNumber":"000008","applicant":{"fullName":"Алексей Карчевский","userName":"master","email":"a.karchevski@pflb.ru","location":"142784, г.Москва, Киевское шоссе, 22-й км,\nБП ComCity, домовл.6, стр.1","phone":"8 (000) 123-45-67","mobilePhone":"8 (000) 123-45-67","id":106},"contractor":{"id":9,"name":"2-Ремонт","organization":"Холодильное оборудование","company":"YYY","active":true},"categories":["Технологическое оборудование","Холодильное оборудование","Холодильная пристенная горка"],"category1":"Технологическое оборудование","category2":"Холодильное оборудование","category3":"Холодильная пристенная горка","location":"Барклая 24","address":"Барклая 24","hasAttachments":true,"actions":["assignContractor","solveTicket","cancelTicket","cancelTask","inventoryNumberChange","slaDateChange","specialistDateChange","comment"]},{"id":149370,"parentId":149370,"externalId":"TSK_1800000","header":"Отсутствие пломб","text":"zdes' bil leha","priority":"Низкий","createDate":1574764263642,"lastEditDate":1574764263650,"state":"Выполняется","stateId":1,"syncMask":"PORTAL_ONLY","files":[{"id":4652,"name":"C:\\Users\\student\\Desktop\\java.txt"}],"isSpecialistDate":false,"ticketState":"Выполняется","ticketStateId":1,"applicant":{"fullName":"Алексей Карчевский","userName":"master","email":"a.karchevski@pflb.ru","location":"142784, г.Москва, Киевское шоссе, 22-й км,\nБП ComCity, домовл.6, стр.1","phone":"8 (000) 123-45-67","mobilePhone":"8 (000) 123-45-67","id":106},"contractor":{"id":9,"name":"2-Ремонт","organization":"Холодильное оборудование","company":"YYY","active":true},"categories":["Инженерия","Измерительные приборы","Электросчетчик"],"category1":"Инженерия","category2":"Измерительные приборы","category3":"Электросчетчик","location":"Изумрудная 14","address":"Изумрудная 14","hasAttachments":true,"actions":["assignContractor","solveTicket","cancelTicket","cancelTask","inventoryNumberChange","slaDateChange","specialistDateChange","comment"]},{"id":149369,"parentId":149369,"externalId":"TSK_1800000","header":"Не светится вся вывеска","text":"Новая проблема Огданец","priority":"Низкий","createDate":1511190000000,"lastEditDate":1574763886130,"state":"Выполняется","stateId":1,"viewed":true,"syncMask":"PORTAL_ONLY","isSpecialistDate":false,"ticketState":"Выполняется","ticketStateId":1,"inventoryNumber":"000006","applicant":{"fullName":"Алексей Карчевский","userName":"master","email":"a.karchevski@pflb.ru","location":"142784, г.Москва, Киевское шоссе, 22-й км,\nБП ComCity, домовл.6, стр.1","phone":"8 (000) 123-45-67","mobilePhone":"8 (000) 123-45-67","id":106},"contractor":{"id":9,"name":"2-Ремонт","organization":"Холодильное оборудование","company":"YYY","active":true},"categories":["Внешняя и внутренняя реклама","Наружная световая вывеска \"\"Пятерочка\"\""],"category1":"Внешняя и внутренняя реклама","category2":"Наружная световая вывеска \"\"Пятерочка\"\"","location":"Барклая 24","address":"Барклая 24","hasAttachments":true,"actions":["assignContractor","solveTicket","cancelTicket","cancelTask","inventoryNumberChange","slaDateChange","specialistDateChange","comment"]},{"id":149368,"parentId":149368,"externalId":"TSK_1800000","header":"Посадка кустарников","text":"DTelekhin test description test description test description test description","priority":"Низкий","createDate":1511190000000,"lastEditDate":1574759918200,"state":"Выполняется","stateId":1,"syncMask":"PORTAL_ONLY","files":[{"id":4388,"name":"userData.txt"}],"isSpecialistDate":false,"ticketState":"Выполняется","ticketStateId":1,"applicant":{"fullName":"Алексей Карчевский","userName":"master","email":"a.karchevski@pflb.ru","location":"142784, г.Москва, Киевское шоссе, 22-й км,\nБП ComCity, домовл.6, стр.1","phone":"8 (000) 123-45-67","mobilePhone":"8 (000) 123-45-67","id":106},"contractor":{"id":9,"name":"2-Ремонт","organization":"Холодильное оборудование","company":"YYY","active":true},"categories":["Технологическое оборудование","Подъемные и передвижные механизмы","Грузовой подъёмник"],"category1":"Технологическое оборудование","category2":"Подъемные и передвижные механизмы","category3":"Грузовой подъёмник","location":"Барклая 24","address":"Барклая 24","hasAttachments":true,"actions":["assignContractor","solveTicket","cancelTicket","cancelTask","inventoryNumberChange","slaDateChange","specialistDateChange","comment"]},{"id":149367,"parentId":149367,"externalId":"TSK_1800000","header":"Посадка кустарников","text":"DTelekhin test description","priority":"Низкий","createDate":1511190000000,"lastEditDate":1574759827484,"state":"Выполняется","stateId":1,"syncMask":"PORTAL_ONLY","isSpecialistDate":false,"ticketState":"Выполняется","ticketStateId":1,"applicant":{"fullName":"Алексей Карчевский","userName":"master","email":"a.karchevski@pflb.ru","location":"142784, г.Москва, Киевское шоссе, 22-й км,\nБП ComCity, домовл.6, стр.1","phone":"8 (000) 123-45-67","mobilePhone":"8 (000) 123-45-67","id":106},"contractor":{"id":9,"name":"2-Ремонт","organization":"Холодильное оборудование","company":"YYY","active":true},"categories":["Инженерия","Отопление","Прорыв, протечка в системе отопления"],"category1":"Инженерия","category2":"Отопление","category3":"Прорыв, протечка в системе отопления","location":"256 Бинарная ул. 16","address":"256 Бинарная ул. 16","actions":["assignContractor","solveTicket","cancelTicket","cancelTask","inventoryNumberChange","slaDateChange","specialistDateChange","comment"]},{"id":149366,"parentId":149366,"externalId":"TSK_1800000","header":"Сломана кнопка подъёмника","text":"Some text 4","priority":"Низкий","createDate":1511190000000,"lastEditDate":1574759500757,"state":"Выполняется","stateId":1,"syncMask":"PORTAL_ONLY","isSpecialistDate":false,"ticketState":"Выполняется","ticketStateId":1,"applicant":{"fullName":"Алексей Карчевский","userName":"master","email":"a.karchevski@pflb.ru","location":"142784, г.Москва, Киевское шоссе, 22-й км,\nБП ComCity, домовл.6, стр.1","phone":"8 (000) 123-45-67","mobilePhone":"8 (000) 123-45-67","id":106},"contractor":{"id":9,"name":"2-Ремонт","organization":"Холодильное оборудование","company":"YYY","active":true},"categories":["Технологическое оборудование","Подъемные и передвижные механизмы","Грузовой подъёмник"],"category1":"Технологическое оборудование","category2":"Подъемные и передвижные механизмы","category3":"Грузовой подъёмник","location":"Изумрудная 14","address":"Изумрудная 14","actions":["assignContractor","solveTicket","cancelTicket","cancelTask","inventoryNumberChange","slaDateChange","specialistDateChange","comment"]},{"id":149365,"parentId":149365,"externalId":"TSK_1800000","header":"Сломана кнопка подъёмника","text":"Some text 4","priority":"Низкий","createDate":1511190000000,"lastEditDate":1574759406289,"state":"Выполняется","stateId":1,"syncMask":"PORTAL_ONLY","isSpecialistDate":false,"ticketState":"Выполняется","ticketStateId":1,"applicant":{"fullName":"Алексей Карчевский","userName":"master","email":"a.karchevski@pflb.ru","location":"142784, г.Москва, Киевское шоссе, 22-й км,\nБП ComCity, домовл.6, стр.1","phone":"8 (000) 123-45-67","mobilePhone":"8 (000) 123-45-67","id":106},"contractor":{"id":9,"name":"2-Ремонт","organization":"Холодильное оборудование","company":"YYY","active":true},"categories":["Технологическое оборудование","Подъемные и передвижные механизмы","Грузовой подъёмник"],"category1":"Технологическое оборудование","category2":"Подъемные и передвижные механизмы","category3":"Грузовой подъёмник","location":"256 Бинарная ул. 16","address":"256 Бинарная ул. 16","actions":["assignContractor","solveTicket","cancelTicket","cancelTask","inventoryNumberChange","slaDateChange","specialistDateChange","comment"]},{"id":149364,"parentId":149364,"externalId":"TSK_1800000","header":"Требуется облагородить территорию (м2, посев газона)","text":"Some text 3","priority":"Низкий","createDate":1511190000000,"lastEditDate":1574759239035,"state":"Выполняется","stateId":1,"syncMask":"PORTAL_ONLY","isSpecialistDate":false,"ticketState":"Выполняется","ticketStateId":1,"applicant":{"fullName":"Алексей Карчевский","userName":"master","email":"a.karchevski@pflb.ru","location":"142784, г.Москва, Киевское шоссе, 22-й км,\nБП ComCity, домовл.6, стр.1","phone":"8 (000) 123-45-67","mobilePhone":"8 (000) 123-45-67","id":106},"contractor":{"id":9,"name":"2-Ремонт","organization":"Холодильное оборудование","company":"YYY","active":true},"categories":["Инженерия","Работы на прилегающей территории","Устройство газонов (насыпка земли, посев травы)"],"category1":"Инженерия","category2":"Работы на прилегающей территории","category3":"Устройство газонов (насыпка земли, посев травы)","location":"default location","address":"default location","actions":["assignContractor","solveTicket","cancelTicket","cancelTask","inventoryNumberChange","slaDateChange","specialistDateChange","comment"]}],"last":false,"totalElements":208,"totalPages":21,"size":10,"number":0,"sort":[{"direction":"DESC","property":"id","ignoreCase":false,"nullHandling":"NATIVE","ascending":false,"descending":true}],"numberOfElements":10,"first":true}