{"content":[{"id":149381,"applicant":{"fullName":"Алексей Карчевский","userName":"master","email":"a.karchevski@pflb.ru","location":"142784, г.Москва, Киевское шоссе, 22-й км,\nБП ComCity, домовл.6, стр.1","phone":"8 (000) 123-45-67","mobilePhone":"8 (000) 123-45-67","id":106},"header":"Течет в местах соединения и подвода воды, нарушена прокладка","text":"testdescriptiontest","createDate":1574769594186,"lastEditDate":1574769594191,"ticketState":"Новый","ticketStateId":-1,"serviceId":2848,"syncMask":"PORTAL_ONLY","files":[{"id":4668,"name":"C:\\Users\\student\\Desktop\\����� ����� (2)\\Andreev123\\pc\\UC01_task_create\\dist_ru (2)(1).zip"}],"location":"default location","address":"default location","categories":["Инженерия","Сантехника","Кран, смеситель, душ"],"category1":"Инженерия","category2":"Сантехника","category3":"Кран, смеситель, душ","hasAttachments":true,"openCommunications":0,"totalCommunications":0,"actions":[]},{"id":149379,"applicant":{"fullName":"Алексей Карчевский","userName":"master","email":"a.karchevski@pflb.ru","location":"142784, г.Москва, Киевское шоссе, 22-й км,\nБП ComCity, домовл.6, стр.1","phone":"8 (000) 123-45-67","mobilePhone":"8 (000) 123-45-67","id":106},"director":{"fullName":"Васильев Павел1","userName":"director_1","email":"director@mail.com","location":"location","address":"152 Скотопрогонная ул. 13","phone":"+79778334486","mobilePhone":"8 (000) 123-45-67","workPhone":"+79778334486","organization":"organization","id":101122},"header":"В холодильнике разбито/сломано(указать, что именно)","text":"Some text 2","createDate":1574768722959,"lastEditDate":1574768722965,"ticketState":"Новый","ticketStateId":-1,"serviceId":2977,"viewed":true,"syncMask":"PORTAL_ONLY","location":"152 Скотопрогонная ул. 13","address":"152 Скотопрогонная ул. 13","categories":["Технологическое оборудование","Холодильное оборудование","Холодильная пристенная горка"],"category1":"Технологическое оборудование","category2":"Холодильное оборудование","category3":"Холодильная пристенная горка","openCommunications":0,"totalCommunications":0,"actions":[]},{"id":149378,"applicant":{"fullName":"Алексей Карчевский","userName":"master","email":"a.karchevski@pflb.ru","location":"142784, г.Москва, Киевское шоссе, 22-й км,\nБП ComCity, домовл.6, стр.1","phone":"8 (000) 123-45-67","mobilePhone":"8 (000) 123-45-67","id":106},"header":"Физическое нарушение корпуса прибора","text":"MX request","createDate":1574766596696,"lastEditDate":1574766596701,"ticketState":"Новый","ticketStateId":-1,"serviceId":2823,"viewed":true,"syncMask":"PORTAL_ONLY","files":[{"id":4660,"name":"C:\\Users\\student\\Documents\\mx\\LoadRunner\\XDesk\\files\\task_details_3.txt"}],"location":"256 Бинарная ул. 16","address":"256 Бинарная ул. 16","categories":["Инженерия","Измерительные приборы","Электросчетчик"],"category1":"Инженерия","category2":"Измерительные приборы","category3":"Электросчетчик","hasAttachments":true,"openCommunications":0,"totalCommunications":0,"actions":[]},{"id":149377,"applicant":{"fullName":"Алексей Карчевский","userName":"master","email":"a.karchevski@pflb.ru","location":"142784, г.Москва, Киевское шоссе, 22-й км,\nБП ComCity, домовл.6, стр.1","phone":"8 (000) 123-45-67","mobilePhone":"8 (000) 123-45-67","id":106},"contractor":{"id":9,"name":"2-Ремонт","organization":"Холодильное оборудование","company":"YYY","active":true},"header":"Вода не нагревается","text":"MX request","createDate":1574766392793,"lastEditDate":1574766392798,"ticketState":"Выполняется","ticketStateId":1,"serviceId":2850,"viewed":true,"syncMask":"PORTAL_ONLY","files":[{"id":4659,"name":"C:\\Users\\student\\Documents\\mx\\LoadRunner\\XDesk\\files\\task_details_1.txt"}],"location":"256 Бинарная ул. 16","address":"256 Бинарная ул. 16","taskId":149377,"taskState":"Выполняется","taskStateId":1,"categories":["Инженерия","Сантехника","Водонагреватели"],"category1":"Инженерия","category2":"Сантехника","category3":"Водонагреватели","canBeCanceled":false,"hasAttachments":true,"openCommunications":0,"totalCommunications":0,"actions":["assignContractor","solveTicket","cancelTicket","cancelTask","inventoryNumberChange","slaDateChange","specialistDateChange","comment"]},{"id":149376,"applicant":{"fullName":"Алексей Карчевский","userName":"master","email":"a.karchevski@pflb.ru","location":"142784, г.Москва, Киевское шоссе, 22-й км,\nБП ComCity, домовл.6, стр.1","phone":"8 (000) 123-45-67","mobilePhone":"8 (000) 123-45-67","id":106},"contractor":{"id":9,"name":"2-Ремонт","organization":"Холодильное оборудование","company":"YYY","active":true},"header":"Засор канализации, труб в магазине","text":"MX request","createDate":1574766323319,"lastEditDate":1574766323324,"ticketState":"Выполняется","ticketStateId":1,"serviceId":2851,"inventoryNumber":"000006","inventoryId":6,"syncMask":"PORTAL_ONLY","files":[{"id":4658,"name":"C:\\Users\\student\\Documents\\mx\\LoadRunner\\XDesk\\files\\task_details_3.txt"}],"location":"Барклая 24","address":"Барклая 24","taskId":149376,"taskState":"Выполняется","taskStateId":1,"categories":["Инженерия","Сантехника","Канализация, трубы (слив воды)"],"category1":"Инженерия","category2":"Сантехника","category3":"Канализация, трубы (слив воды)","canBeCanceled":false,"hasAttachments":true,"openCommunications":0,"totalCommunications":0,"actions":["assignContractor","solveTicket","cancelTicket","cancelTask","inventoryNumberChange","slaDateChange","specialistDateChange","comment"]},{"id":149375,"applicant":{"fullName":"Алексей Карчевский","userName":"master","email":"a.karchevski@pflb.ru","location":"142784, г.Москва, Киевское шоссе, 22-й км,\nБП ComCity, домовл.6, стр.1","phone":"8 (000) 123-45-67","mobilePhone":"8 (000) 123-45-67","id":106},"header":"Не работает счётчик купюр","text":"MX request","createDate":1574765161490,"lastEditDate":1574765161495,"ticketState":"Новый","ticketStateId":-1,"serviceId":2902,"syncMask":"PORTAL_ONLY","files":[{"id":4657,"name":"C:\\Users\\student\\Documents\\mx\\LoadRunner\\XDesk\\files\\task_details_1.txt"}],"location":"default location","address":"default location","categories":["Технологическое оборудование","Банковское оборудование","Счётчик купюр"],"category1":"Технологическое оборудование","category2":"Банковское оборудование","category3":"Счётчик купюр","hasAttachments":true,"openCommunications":0,"totalCommunications":0,"actions":[]},{"id":149374,"applicant":{"fullName":"Алексей Карчевский","userName":"master","email":"a.karchevski@pflb.ru","location":"142784, г.Москва, Киевское шоссе, 22-й км,\nБП ComCity, домовл.6, стр.1","phone":"8 (000) 123-45-67","mobilePhone":"8 (000) 123-45-67","id":106},"header":"Отсутствие отопления, все батареи холодные","text":"MX request","createDate":1574764919014,"lastEditDate":1574764919019,"ticketState":"Новый","ticketStateId":-1,"serviceId":2853,"inventoryNumber":"777","inventoryId":11,"syncMask":"PORTAL_ONLY","files":[{"id":4656,"name":"C:\\Users\\student\\Documents\\mx\\LoadRunner\\XDesk\\files\\task_details_3.txt"}],"location":"Изумрудная 14","address":"Изумрудная 14","categories":["Инженерия","Отопление","Нарушение температурного режима (холод в магазине)"],"category1":"Инженерия","category2":"Отопление","category3":"Нарушение температурного режима (холод в магазине)","hasAttachments":true,"openCommunications":0,"totalCommunications":0,"actions":[]},{"id":149373,"applicant":{"fullName":"Алексей Карчевский","userName":"master","email":"a.karchevski@pflb.ru","location":"142784, г.Москва, Киевское шоссе, 22-й км,\nБП ComCity, домовл.6, стр.1","phone":"8 (000) 123-45-67","mobilePhone":"8 (000) 123-45-67","id":106},"header":"Кондиционер издаёт нехарактерные звуки","text":"MX request","createDate":1574764889804,"lastEditDate":1574764889809,"ticketState":"Новый","ticketStateId":-1,"serviceId":2934,"viewed":true,"syncMask":"PORTAL_ONLY","files":[{"id":4655,"name":"C:\\Users\\student\\Documents\\mx\\LoadRunner\\XDesk\\files\\task_details_2.txt"}],"location":"default location","address":"default location","categories":["Технологическое оборудование","Климатическое оборудование","Кондиционер"],"category1":"Технологическое оборудование","category2":"Климатическое оборудование","category3":"Кондиционер","hasAttachments":true,"openCommunications":0,"totalCommunications":0,"actions":[]},{"id":149371,"applicant":{"fullName":"Алексей Карчевский","userName":"master","email":"a.karchevski@pflb.ru","location":"142784, г.Москва, Киевское шоссе, 22-й км,\nБП ComCity, домовл.6, стр.1","phone":"8 (000) 123-45-67","mobilePhone":"8 (000) 123-45-67","id":106},"contractor":{"id":9,"name":"2-Ремонт","organization":"Холодильное оборудование","company":"YYY","active":true},"header":"Холодильник издаёт посторонние звуки","text":"MX request","createDate":1574764691200,"lastEditDate":1574764691205,"ticketState":"Выполняется","ticketStateId":1,"serviceId":2974,"inventoryNumber":"000008","inventoryId":8,"syncMask":"PORTAL_ONLY","files":[{"id":4653,"name":"C:\\Users\\student\\Documents\\mx\\LoadRunner\\XDesk\\files\\task_details_2.txt"}],"location":"Барклая 24","address":"Барклая 24","taskId":149371,"taskState":"Выполняется","taskStateId":1,"categories":["Технологическое оборудование","Холодильное оборудование","Холодильная пристенная горка"],"category1":"Технологическое оборудование","category2":"Холодильное оборудование","category3":"Холодильная пристенная горка","canBeCanceled":false,"hasAttachments":true,"openCommunications":0,"totalCommunications":0,"actions":["assignContractor","solveTicket","cancelTicket","cancelTask","inventoryNumberChange","slaDateChange","specialistDateChange","comment"]},{"id":149370,"applicant":{"fullName":"Алексей Карчевский","userName":"master","email":"a.karchevski@pflb.ru","location":"142784, г.Москва, Киевское шоссе, 22-й км,\nБП ComCity, домовл.6, стр.1","phone":"8 (000) 123-45-67","mobilePhone":"8 (000) 123-45-67","id":106},"contractor":{"id":9,"name":"2-Ремонт","organization":"Холодильное оборудование","company":"YYY","active":true},"header":"Отсутствие пломб","text":"zdes' bil leha","createDate":1574764263642,"lastEditDate":1574764263650,"ticketState":"Выполняется","ticketStateId":1,"serviceId":2821,"viewed":true,"syncMask":"PORTAL_ONLY","files":[{"id":4652,"name":"C:\\Users\\student\\Desktop\\java.txt"}],"location":"Изумрудная 14","address":"Изумрудная 14","taskId":149370,"taskState":"Выполняется","taskStateId":1,"categories":["Инженерия","Измерительные приборы","Электросчетчик"],"category1":"Инженерия","category2":"Измерительные приборы","category3":"Электросчетчик","canBeCanceled":false,"hasAttachments":true,"openCommunications":0,"totalCommunications":0,"actions":["assignContractor","solveTicket","cancelTicket","cancelTask","inventoryNumberChange","slaDateChange","specialistDateChange","comment"]}],"last":false,"totalElements":214,"totalPages":22,"size":10,"number":0,"sort":[{"direction":"DESC","property":"id","ignoreCase":false,"nullHandling":"NATIVE","ascending":false,"descending":true}],"numberOfElements":10,"first":true}