{"content":[{"id":149434,"applicant":{"fullName":"Алексей Карчевский","userName":"master","email":"a.karchevski@pflb.ru","location":"142784, г.Москва, Киевское шоссе, 22-й км,\nБП ComCity, домовл.6, стр.1","phone":"8 (000) 123-45-67","mobilePhone":"8 (000) 123-45-67","id":106},"header":"Требуется помывка вывески","text":"comment 2(alex)","createDate":1574854528538,"lastEditDate":1574854528542,"ticketState":"Новый","ticketStateId":-1,"serviceId":2995,"syncMask":"PORTAL_ONLY","files":[{"id":4737,"name":"C:\\\\Users\\\\student\\\\Documents\\\\XDesk LR\\\\learning2\\\\XDesk task details\\\\task_detail_2.txt"}],"location":"256 Бинарная ул. 16","address":"256 Бинарная ул. 16","categories":["Внешняя и внутренняя реклама","Наружная световая вывеска \"\"Пятерочка\"\""],"category1":"Внешняя и внутренняя реклама","category2":"Наружная световая вывеска \"\"Пятерочка\"\"","hasAttachments":true,"openCommunications":0,"totalCommunications":0,"actions":[]},{"id":149433,"applicant":{"fullName":"Алексей Карчевский","userName":"master","email":"a.karchevski@pflb.ru","location":"142784, г.Москва, Киевское шоссе, 22-й км,\nБП ComCity, домовл.6, стр.1","phone":"8 (000) 123-45-67","mobilePhone":"8 (000) 123-45-67","id":106},"header":"Невозможно закрыть, постоянная течь воды","text":"Some text 5","createDate":1574854518627,"lastEditDate":1574854518632,"ticketState":"Новый","ticketStateId":-1,"serviceId":3195,"syncMask":"PORTAL_ONLY","files":[{"id":4736,"name":"C:\\Users\\student\\Desktop\\Ogdanets\\Project\\UC01_task_create\\File1.txt"}],"location":"default location","address":"default location","categories":["Инженерия","Сантехника","Кран, смеситель, душ"],"category1":"Инженерия","category2":"Сантехника","category3":"Кран, смеситель, душ","hasAttachments":true,"openCommunications":0,"totalCommunications":0,"actions":[]},{"id":149432,"applicant":{"fullName":"Алексей Карчевский","userName":"master","email":"a.karchevski@pflb.ru","location":"142784, г.Москва, Киевское шоссе, 22-й км,\nБП ComCity, домовл.6, стр.1","phone":"8 (000) 123-45-67","mobilePhone":"8 (000) 123-45-67","id":106},"header":"Не работает холодильная камера (указать, какую температуру показывает)","text":"Some text 1","createDate":1574854424927,"lastEditDate":1574854424932,"ticketState":"Новый","ticketStateId":-1,"serviceId":2958,"syncMask":"PORTAL_ONLY","files":[{"id":4735,"name":"C:\\Users\\student\\Desktop\\Ogdanets\\Project\\UC01_task_create\\File1.txt"}],"location":"256 Бинарная ул. 16","address":"256 Бинарная ул. 16","categories":["Технологическое оборудование","Холодильное оборудование","Холодильная камера"],"category1":"Технологическое оборудование","category2":"Холодильное оборудование","category3":"Холодильная камера","hasAttachments":true,"openCommunications":0,"totalCommunications":0,"actions":[]},{"id":149431,"applicant":{"fullName":"Алексей Карчевский","userName":"master","email":"a.karchevski@pflb.ru","location":"142784, г.Москва, Киевское шоссе, 22-й км,\nБП ComCity, домовл.6, стр.1","phone":"8 (000) 123-45-67","mobilePhone":"8 (000) 123-45-67","id":106},"header":"Замена кол-во плиток потолка, замена направляющих подвисного потолка","text":"Some text 3","createDate":1574854318773,"lastEditDate":1574854318778,"ticketState":"Новый","ticketStateId":-1,"serviceId":2863,"syncMask":"PORTAL_ONLY","files":[{"id":4734,"name":"C:\\Users\\student\\Desktop\\Ogdanets\\Project\\UC01_task_create\\File1.txt"}],"location":"default location","address":"default location","categories":["Инженерия","Части здания","Потолок, пол, стены"],"category1":"Инженерия","category2":"Части здания","category3":"Потолок, пол, стены","hasAttachments":true,"openCommunications":0,"totalCommunications":0,"actions":[]},{"id":149430,"applicant":{"fullName":"Алексей Карчевский","userName":"master","email":"a.karchevski@pflb.ru","location":"142784, г.Москва, Киевское шоссе, 22-й км,\nБП ComCity, домовл.6, стр.1","phone":"8 (000) 123-45-67","mobilePhone":"8 (000) 123-45-67","id":106},"header":"Требуется дополнительный вывоз вторсырья","text":"Some text 5","createDate":1574854060113,"lastEditDate":1574854060118,"ticketState":"Новый","ticketStateId":-1,"serviceId":2812,"syncMask":"PORTAL_ONLY","files":[{"id":4733,"name":"C:\\Users\\student\\Desktop\\Ogdanets\\Project\\UC01_task_create\\File1.txt"}],"location":"default location","address":"default location","categories":["Экология","Вторсырье","Заказ дополнительного вывоза вторсырья"],"category1":"Экология","category2":"Вторсырье","category3":"Заказ дополнительного вывоза вторсырья","hasAttachments":true,"openCommunications":0,"totalCommunications":0,"actions":[]},{"id":149429,"applicant":{"fullName":"Алексей Карчевский","userName":"master","email":"a.karchevski@pflb.ru","location":"142784, г.Москва, Киевское шоссе, 22-й км,\nБП ComCity, домовл.6, стр.1","phone":"8 (000) 123-45-67","mobilePhone":"8 (000) 123-45-67","id":106},"header":"Отсутствие инвентаря, необходимого для уборки","text":"Some text 4","createDate":1574853748186,"lastEditDate":1574853748191,"ticketState":"Новый","ticketStateId":-1,"serviceId":2799,"syncMask":"PORTAL_ONLY","files":[{"id":4732,"name":"C:\\Users\\student\\Desktop\\Ogdanets\\Project\\UC01_task_create\\File1.txt"}],"location":"Барклая 24","address":"Барклая 24","categories":["Экология","Уборка помещений и прилегающей территории","Уборка помещений"],"category1":"Экология","category2":"Уборка помещений и прилегающей территории","category3":"Уборка помещений","hasAttachments":true,"openCommunications":0,"totalCommunications":0,"actions":[]},{"id":149428,"applicant":{"fullName":"Алексей Карчевский","userName":"master","email":"a.karchevski@pflb.ru","location":"142784, г.Москва, Киевское шоссе, 22-й км,\nБП ComCity, домовл.6, стр.1","phone":"8 (000) 123-45-67","mobilePhone":"8 (000) 123-45-67","id":106},"header":"Требуется дополнительный вывоз вторсырья","text":"Some text 2","createDate":1574853739996,"lastEditDate":1574853740008,"ticketState":"Новый","ticketStateId":-1,"serviceId":2812,"syncMask":"PORTAL_ONLY","files":[{"id":4731,"name":"C:\\Users\\student\\Desktop\\Ogdanets\\Project\\UC01_task_create\\File1.txt"}],"location":"default location","address":"default location","categories":["Экология","Вторсырье","Заказ дополнительного вывоза вторсырья"],"category1":"Экология","category2":"Вторсырье","category3":"Заказ дополнительного вывоза вторсырья","hasAttachments":true,"openCommunications":0,"totalCommunications":0,"actions":[]},{"id":149427,"applicant":{"fullName":"Алексей Карчевский","userName":"master","email":"a.karchevski@pflb.ru","location":"142784, г.Москва, Киевское шоссе, 22-й км,\nБП ComCity, домовл.6, стр.1","phone":"8 (000) 123-45-67","mobilePhone":"8 (000) 123-45-67","id":106},"header":"Конденстор поврежден [указать чем/кем]","text":"Some text 4","createDate":1574853628394,"lastEditDate":1574853628399,"ticketState":"Новый","ticketStateId":-1,"serviceId":2956,"syncMask":"PORTAL_ONLY","files":[{"id":4730,"name":"C:\\Users\\student\\Desktop\\Ogdanets\\Project\\UC01_task_create\\File1.txt"}],"location":"default location","address":"default location","categories":["Технологическое оборудование","Холодильное оборудование","Центральная холодильная машина, конденсатор"],"category1":"Технологическое оборудование","category2":"Холодильное оборудование","category3":"Центральная холодильная машина, конденсатор","hasAttachments":true,"openCommunications":0,"totalCommunications":0,"actions":[]},{"id":149426,"applicant":{"fullName":"Алексей Карчевский","userName":"master","email":"a.karchevski@pflb.ru","location":"142784, г.Москва, Киевское шоссе, 22-й км,\nБП ComCity, домовл.6, стр.1","phone":"8 (000) 123-45-67","mobilePhone":"8 (000) 123-45-67","id":106},"director":{"fullName":"Васильев Павел1","userName":"director_1","email":"director@mail.com","location":"location","address":"152 Скотопрогонная ул. 13","phone":"+79778334486","mobilePhone":"8 (000) 123-45-67","workPhone":"+79778334486","organization":"organization","id":101122},"header":"В холодильнике не горит свет","text":"Some text 1","createDate":1574853617433,"lastEditDate":1574853617439,"ticketState":"Новый","ticketStateId":-1,"serviceId":2976,"syncMask":"PORTAL_ONLY","files":[{"id":4729,"name":"C:\\Users\\student\\Desktop\\Ogdanets\\Project\\UC01_task_create\\File1.txt"}],"location":"152 Скотопрогонная ул. 13","address":"152 Скотопрогонная ул. 13","categories":["Технологическое оборудование","Холодильное оборудование","Холодильная пристенная горка"],"category1":"Технологическое оборудование","category2":"Холодильное оборудование","category3":"Холодильная пристенная горка","hasAttachments":true,"openCommunications":0,"totalCommunications":0,"actions":[]},{"id":149425,"applicant":{"fullName":"Алексей Карчевский","userName":"master","email":"a.karchevski@pflb.ru","location":"142784, г.Москва, Киевское шоссе, 22-й км,\nБП ComCity, домовл.6, стр.1","phone":"8 (000) 123-45-67","mobilePhone":"8 (000) 123-45-67","id":106},"header":"Физическое нарушение корпуса прибора","text":"Some text 5","createDate":1574853604558,"lastEditDate":1574853604562,"ticketState":"Новый","ticketStateId":-1,"serviceId":2823,"syncMask":"PORTAL_ONLY","files":[{"id":4728,"name":"C:\\Users\\student\\Desktop\\Ogdanets\\Project\\UC01_task_create\\File1.txt"}],"location":"default location","address":"default location","categories":["Инженерия","Измерительные приборы","Электросчетчик"],"category1":"Инженерия","category2":"Измерительные приборы","category3":"Электросчетчик","hasAttachments":true,"openCommunications":0,"totalCommunications":0,"actions":[]}],"last":false,"totalElements":253,"totalPages":26,"size":10,"number":0,"sort":[{"direction":"DESC","property":"id","ignoreCase":false,"nullHandling":"NATIVE","ascending":false,"descending":true}],"numberOfElements":10,"first":true}