{"content":[{"id":149534,"applicant":{"fullName":"Алексей Карчевский","userName":"master","email":"a.karchevski@pflb.ru","location":"142784, г.Москва, Киевское шоссе, 22-й км,\nБП ComCity, домовл.6, стр.1","phone":"8 (000) 123-45-67","mobilePhone":"8 (000) 123-45-67","id":106},"header":"Витрина не работает","text":"comment 5 (alex)","createDate":1574928839655,"lastEditDate":1574928839781,"ticketState":"Новый","ticketStateId":-1,"serviceId":2896,"syncMask":"PORTAL_ONLY","files":[{"id":4852,"name":"C:\\Users\\student\\Documents\\XDesk LR\\learning2\\UC01_task_create\\..\\XDesk_task_details\\task_detail_3.txt"}],"location":"256 Бинарная ул. 16","address":"256 Бинарная ул. 16","categories":["Технологическое оборудование","Тепловое оборудование","Тепловая витрина"],"category1":"Технологическое оборудование","category2":"Тепловое оборудование","category3":"Тепловая витрина","hasAttachments":true,"openCommunications":0,"totalCommunications":0,"actions":[]},{"id":149533,"applicant":{"fullName":"Алексей Карчевский","userName":"master","email":"a.karchevski@pflb.ru","location":"142784, г.Москва, Киевское шоссе, 22-й км,\nБП ComCity, домовл.6, стр.1","phone":"8 (000) 123-45-67","mobilePhone":"8 (000) 123-45-67","id":106},"header":"Не работает холодильная камера (указать, какую температуру показывает)","text":"MX request","createDate":1574928544593,"lastEditDate":1574928544598,"ticketState":"Новый","ticketStateId":-1,"serviceId":2958,"inventoryNumber":"000007","inventoryId":7,"syncMask":"PORTAL_ONLY","files":[{"id":4850,"name":"C:\\Users\\student\\Documents\\mx\\LoadRunner\\PL_XDesk\\UC01_task_create\\..\\files\\task_details_3.txt"}],"location":"Барклая 24","address":"Барклая 24","categories":["Технологическое оборудование","Холодильное оборудование","Холодильная камера"],"category1":"Технологическое оборудование","category2":"Холодильное оборудование","category3":"Холодильная камера","hasAttachments":true,"openCommunications":0,"totalCommunications":0,"actions":[]},{"id":149532,"applicant":{"fullName":"Алексей Карчевский","userName":"master","email":"a.karchevski@pflb.ru","location":"142784, г.Москва, Киевское шоссе, 22-й км,\nБП ComCity, домовл.6, стр.1","phone":"8 (000) 123-45-67","mobilePhone":"8 (000) 123-45-67","id":106},"header":"Промывка фасадов (в том числе - мойка вывесок с применением моющих средств)","text":"MX request","createDate":1574928509901,"lastEditDate":1574928509906,"ticketState":"Новый","ticketStateId":-1,"serviceId":2789,"syncMask":"PORTAL_ONLY","files":[{"id":4849,"name":"C:\\Users\\student\\Documents\\mx\\LoadRunner\\PL_XDesk\\UC01_task_create\\..\\files\\task_details_2.txt"}],"location":"default location","address":"default location","categories":["Экология","Уборка помещений и прилегающей территории","Уборка прилегающей территории"],"category1":"Экология","category2":"Уборка помещений и прилегающей территории","category3":"Уборка прилегающей территории","hasAttachments":true,"openCommunications":0,"totalCommunications":0,"actions":[]},{"id":149531,"applicant":{"fullName":"Алексей Карчевский","userName":"master","email":"a.karchevski@pflb.ru","location":"142784, г.Москва, Киевское шоссе, 22-й км,\nБП ComCity, домовл.6, стр.1","phone":"8 (000) 123-45-67","mobilePhone":"8 (000) 123-45-67","id":106},"header":"Невозможно закрыть, постоянная течь воды","text":"MX request","createDate":1574928493097,"lastEditDate":1574928493102,"ticketState":"Новый","ticketStateId":-1,"serviceId":2847,"syncMask":"PORTAL_ONLY","files":[{"id":4848,"name":"C:\\Users\\student\\Documents\\mx\\LoadRunner\\PL_XDesk\\UC01_task_create\\..\\files\\task_details_3.txt"}],"location":"default location","address":"default location","categories":["Инженерия","Сантехника","Раковина, Унитаз, Мойка"],"category1":"Инженерия","category2":"Сантехника","category3":"Раковина, Унитаз, Мойка","hasAttachments":true,"openCommunications":0,"totalCommunications":0,"actions":[]},{"id":149530,"applicant":{"fullName":"Алексей Карчевский","userName":"master","email":"a.karchevski@pflb.ru","location":"142784, г.Москва, Киевское шоссе, 22-й км,\nБП ComCity, домовл.6, стр.1","phone":"8 (000) 123-45-67","mobilePhone":"8 (000) 123-45-67","id":106},"header":"Не крутится транспортёрная лента","text":"Agalarov.A.1813960333","createDate":1574928282887,"lastEditDate":1574928282892,"ticketState":"Выполняется","ticketStateId":1,"serviceId":2912,"inventoryNumber":"000007","inventoryId":7,"syncMask":"PORTAL_ONLY","files":[{"id":4387,"name":"test_text_file.txt"}],"location":"Барклая 24","address":"Барклая 24","categories":["Технологическое оборудование","Подъемные и передвижные механизмы","Эскалатор, лифт, подъемник"],"category1":"Технологическое оборудование","category2":"Подъемные и передвижные механизмы","category3":"Эскалатор, лифт, подъемник","canBeCanceled":false,"hasAttachments":true,"openCommunications":0,"totalCommunications":0,"actions":[]},{"id":149529,"applicant":{"fullName":"Алексей Карчевский","userName":"master","email":"a.karchevski@pflb.ru","location":"142784, г.Москва, Киевское шоссе, 22-й км,\nБП ComCity, домовл.6, стр.1","phone":"8 (000) 123-45-67","mobilePhone":"8 (000) 123-45-67","id":106},"header":"Не крутится транспортёрная лента","text":"Agalarov.A.2103160450","createDate":1574928277130,"lastEditDate":1574928277136,"ticketState":"Выполняется","ticketStateId":1,"serviceId":2834,"inventoryNumber":"000006","inventoryId":6,"syncMask":"PORTAL_ONLY","location":"Барклая 24","address":"Барклая 24","categories":["Инженерия","Электрооборудование","Электророзетки, выключатели"],"category1":"Инженерия","category2":"Электрооборудование","category3":"Электророзетки, выключатели","canBeCanceled":false,"openCommunications":0,"totalCommunications":0,"actions":[]},{"id":149528,"applicant":{"fullName":"Алексей Карчевский","userName":"master","email":"a.karchevski@pflb.ru","location":"142784, г.Москва, Киевское шоссе, 22-й км,\nБП ComCity, домовл.6, стр.1","phone":"8 (000) 123-45-67","mobilePhone":"8 (000) 123-45-67","id":106},"header":"Не крутится транспортёрная лента","text":"Agalarov.A.1764617842","createDate":1574928271105,"lastEditDate":1574928271110,"ticketState":"Выполняется","ticketStateId":1,"serviceId":2960,"inventoryNumber":"777","inventoryId":11,"syncMask":"PORTAL_ONLY","location":"Изумрудная 14","address":"Изумрудная 14","categories":["Технологическое оборудование","Холодильное оборудование","Холодильная камера"],"category1":"Технологическое оборудование","category2":"Холодильное оборудование","category3":"Холодильная камера","canBeCanceled":false,"openCommunications":0,"totalCommunications":0,"actions":[]},{"id":149527,"applicant":{"fullName":"Алексей Карчевский","userName":"master","email":"a.karchevski@pflb.ru","location":"142784, г.Москва, Киевское шоссе, 22-й км,\nБП ComCity, домовл.6, стр.1","phone":"8 (000) 123-45-67","mobilePhone":"8 (000) 123-45-67","id":106},"header":"Не крутится транспортёрная лента","text":"Agalarov.A.1200423560","createDate":1574928264773,"lastEditDate":1574928264856,"ticketState":"Новый","ticketStateId":-1,"serviceId":2899,"syncMask":"PORTAL_ONLY","location":"256 Бинарная ул. 16","address":"256 Бинарная ул. 16","categories":["Технологическое оборудование","Тепловое оборудование","Гриль"],"category1":"Технологическое оборудование","category2":"Тепловое оборудование","category3":"Гриль","openCommunications":0,"totalCommunications":0,"actions":[]},{"id":149526,"applicant":{"fullName":"Алексей Карчевский","userName":"master","email":"a.karchevski@pflb.ru","location":"142784, г.Москва, Киевское шоссе, 22-й км,\nБП ComCity, домовл.6, стр.1","phone":"8 (000) 123-45-67","mobilePhone":"8 (000) 123-45-67","id":106},"header":"Не крутится транспортёрная лента","text":"Agalarov.A.1624824480","createDate":1574928258980,"lastEditDate":1574928258985,"ticketState":"Новый","ticketStateId":-1,"serviceId":2791,"inventoryNumber":"000009","inventoryId":9,"syncMask":"PORTAL_ONLY","location":"Изумрудная 14","address":"Изумрудная 14","categories":["Экология","Уборка помещений и прилегающей территории","Уборка прилегающей территории"],"category1":"Экология","category2":"Уборка помещений и прилегающей территории","category3":"Уборка прилегающей территории","openCommunications":0,"totalCommunications":0,"actions":[]},{"id":149525,"applicant":{"fullName":"Алексей Карчевский","userName":"master","email":"a.karchevski@pflb.ru","location":"142784, г.Москва, Киевское шоссе, 22-й км,\nБП ComCity, домовл.6, стр.1","phone":"8 (000) 123-45-67","mobilePhone":"8 (000) 123-45-67","id":106},"header":"Не крутится транспортёрная лента","text":"Agalarov.A.2064946250","createDate":1574928213243,"lastEditDate":1574928213248,"ticketState":"Новый","ticketStateId":-1,"serviceId":2905,"inventoryNumber":"777","inventoryId":11,"syncMask":"PORTAL_ONLY","location":"Изумрудная 14","address":"Изумрудная 14","categories":["Технологическое оборудование","Инженерное оборудование","Пресс"],"category1":"Технологическое оборудование","category2":"Инженерное оборудование","category3":"Пресс","openCommunications":0,"totalCommunications":0,"actions":[]}],"last":false,"totalElements":341,"totalPages":35,"size":10,"number":0,"sort":[{"direction":"DESC","property":"id","ignoreCase":false,"nullHandling":"NATIVE","ascending":false,"descending":true}],"numberOfElements":10,"first":true}