{"content":[{"id":149687,"applicant":{"fullName":"Алексей Карчевский","userName":"master","email":"a.karchevski@pflb.ru","location":"142784, г.Москва, Киевское шоссе, 22-й км,\nБП ComCity, домовл.6, стр.1","phone":"8 (000) 123-45-67","mobilePhone":"8 (000) 123-45-67","id":106},"header":"Сломалась лицевая поверхность буквы","text":"Some text 666","createDate":1575017303789,"lastEditDate":1575017303794,"ticketState":"Новый","ticketStateId":-1,"serviceId":2996,"viewed":true,"syncMask":"PORTAL_ONLY","files":[{"id":5013,"name":"res.html"}],"location":"256 Бинарная ул. 16","address":"256 Бинарная ул. 16","categories":["Внешняя и внутренняя реклама","Наружная световая вывеска \"\"Пятерочка\"\""],"category1":"Внешняя и внутренняя реклама","category2":"Наружная световая вывеска \"\"Пятерочка\"\"","hasAttachments":true,"openCommunications":0,"totalCommunications":0,"actions":[]},{"id":149686,"applicant":{"fullName":"Алексей Карчевский","userName":"master","email":"a.karchevski@pflb.ru","location":"142784, г.Москва, Киевское шоссе, 22-й км,\nБП ComCity, домовл.6, стр.1","phone":"8 (000) 123-45-67","mobilePhone":"8 (000) 123-45-67","id":106},"header":"В холодильнике разбито/сломано","text":"MX request","createDate":1575016679790,"lastEditDate":1575016679794,"ticketState":"Новый","ticketStateId":-1,"serviceId":2991,"inventoryNumber":"000010","inventoryId":10,"syncMask":"PORTAL_ONLY","location":"Изумрудная 14","address":"Изумрудная 14","categories":["Технологическое оборудование","Холодильное оборудование","Ларь Бонета"],"category1":"Технологическое оборудование","category2":"Холодильное оборудование","category3":"Ларь Бонета","openCommunications":0,"totalCommunications":0,"actions":[]},{"id":149685,"applicant":{"fullName":"Алексей Карчевский","userName":"master","email":"a.karchevski@pflb.ru","location":"142784, г.Москва, Киевское шоссе, 22-й км,\nБП ComCity, домовл.6, стр.1","phone":"8 (000) 123-45-67","mobilePhone":"8 (000) 123-45-67","id":106},"header":"Замена кол-во плиток потолка, замена направляющих подвисного потолка","text":"Some text 2","createDate":1575016148641,"lastEditDate":1575016148644,"ticketState":"Новый","ticketStateId":-1,"serviceId":2863,"viewed":true,"syncMask":"PORTAL_ONLY","location":"Изумрудная 14","address":"Изумрудная 14","categories":["Инженерия","Части здания","Потолок, пол, стены"],"category1":"Инженерия","category2":"Части здания","category3":"Потолок, пол, стены","openCommunications":0,"totalCommunications":0,"actions":[]},{"id":149684,"applicant":{"fullName":"Алексей Карчевский","userName":"master","email":"a.karchevski@pflb.ru","location":"142784, г.Москва, Киевское шоссе, 22-й км,\nБП ComCity, домовл.6, стр.1","phone":"8 (000) 123-45-67","mobilePhone":"8 (000) 123-45-67","id":106},"header":"Лифт работает с открытой дверцей","text":"Some text 1","createDate":1575016088587,"lastEditDate":1575016088591,"ticketState":"Новый","ticketStateId":-1,"serviceId":2915,"syncMask":"PORTAL_ONLY","location":"256 Бинарная ул. 16","address":"256 Бинарная ул. 16","categories":["Технологическое оборудование","Подъемные и передвижные механизмы","Эскалатор, лифт, подъемник"],"category1":"Технологическое оборудование","category2":"Подъемные и передвижные механизмы","category3":"Эскалатор, лифт, подъемник","openCommunications":0,"totalCommunications":0,"actions":[]},{"id":149683,"applicant":{"fullName":"Алексей Карчевский","userName":"master","email":"a.karchevski@pflb.ru","location":"142784, г.Москва, Киевское шоссе, 22-й км,\nБП ComCity, домовл.6, стр.1","phone":"8 (000) 123-45-67","mobilePhone":"8 (000) 123-45-67","id":106},"header":"Не светится несколько букв","text":"Some text 1","createDate":1575016070245,"lastEditDate":1575016070249,"ticketState":"Новый","ticketStateId":-1,"serviceId":2994,"viewed":true,"syncMask":"PORTAL_ONLY","location":"default location","address":"default location","categories":["Внешняя и внутренняя реклама","Наружная световая вывеска \"\"Пятерочка\"\""],"category1":"Внешняя и внутренняя реклама","category2":"Наружная световая вывеска \"\"Пятерочка\"\"","openCommunications":0,"totalCommunications":0,"actions":[]},{"id":149682,"applicant":{"fullName":"Алексей Карчевский","userName":"master","email":"a.karchevski@pflb.ru","location":"142784, г.Москва, Киевское шоссе, 22-й км,\nБП ComCity, домовл.6, стр.1","phone":"8 (000) 123-45-67","mobilePhone":"8 (000) 123-45-67","id":106},"header":"Лифт не поднимает вес","text":"Some text 2","createDate":1575016026776,"lastEditDate":1575016026780,"ticketState":"Новый","ticketStateId":-1,"serviceId":2914,"viewed":true,"syncMask":"PORTAL_ONLY","location":"default location","address":"default location","categories":["Технологическое оборудование","Подъемные и передвижные механизмы","Эскалатор, лифт, подъемник"],"category1":"Технологическое оборудование","category2":"Подъемные и передвижные механизмы","category3":"Эскалатор, лифт, подъемник","openCommunications":0,"totalCommunications":0,"actions":[]},{"id":149681,"applicant":{"fullName":"Алексей Карчевский","userName":"master","email":"a.karchevski@pflb.ru","location":"142784, г.Москва, Киевское шоссе, 22-й км,\nБП ComCity, домовл.6, стр.1","phone":"8 (000) 123-45-67","mobilePhone":"8 (000) 123-45-67","id":106},"header":"Сломалась лицевая поверхность буквы","text":"Some text 666","createDate":1575015736183,"lastEditDate":1575015736188,"ticketState":"Новый","ticketStateId":-1,"serviceId":2996,"viewed":true,"syncMask":"PORTAL_ONLY","location":"256 Бинарная ул. 16","address":"256 Бинарная ул. 16","categories":["Внешняя и внутренняя реклама","Наружная световая вывеска \"\"Пятерочка\"\""],"category1":"Внешняя и внутренняя реклама","category2":"Наружная световая вывеска \"\"Пятерочка\"\"","openCommunications":0,"totalCommunications":0,"actions":[]},{"id":149680,"applicant":{"fullName":"Алексей Карчевский","userName":"master","email":"a.karchevski@pflb.ru","location":"142784, г.Москва, Киевское шоссе, 22-й км,\nБП ComCity, домовл.6, стр.1","phone":"8 (000) 123-45-67","mobilePhone":"8 (000) 123-45-67","id":106},"header":"Сломалась лицевая поверхность буквы","text":"Сломалась лицевая поверхность буквы \"Ё\", осталась только внутренняя поверхность.","createDate":1575014935058,"lastEditDate":1575014935062,"ticketState":"Новый","ticketStateId":-1,"serviceId":2996,"syncMask":"PORTAL_ONLY","files":[{"id":5012,"name":"res.html"}],"location":"256 Бинарная ул. 16","address":"256 Бинарная ул. 16","categories":["Внешняя и внутренняя реклама","Наружная световая вывеска \"\"Пятерочка\"\""],"category1":"Внешняя и внутренняя реклама","category2":"Наружная световая вывеска \"\"Пятерочка\"\"","hasAttachments":true,"openCommunications":0,"totalCommunications":0,"actions":[]},{"id":149678,"applicant":{"fullName":"Алексей Карчевский","userName":"master","email":"a.karchevski@pflb.ru","location":"142784, г.Москва, Киевское шоссе, 22-й км,\nБП ComCity, домовл.6, стр.1","phone":"8 (000) 123-45-67","mobilePhone":"8 (000) 123-45-67","id":106},"header":"Промывка твердого покрытия мест размещения контейнеров ТБО, мест установки бункеров","text":"Some text 4","createDate":1575014592665,"lastEditDate":1575014592670,"ticketState":"Выполняется","ticketStateId":1,"serviceId":2796,"syncMask":"PORTAL_ONLY","location":"Изумрудная 14","address":"Изумрудная 14","taskId":149678,"taskState":"Решена","taskStateId":2,"categories":["Экология","Уборка помещений и прилегающей территории","Уборка прилегающей территории"],"category1":"Экология","category2":"Уборка помещений и прилегающей территории","category3":"Уборка прилегающей территории","canBeCanceled":false,"openCommunications":0,"totalCommunications":0,"actions":["solveTicket","cancelTicket","inventoryNumberChange","slaDateChange","comment"]},{"id":149677,"applicant":{"fullName":"Алексей Карчевский","userName":"master","email":"a.karchevski@pflb.ru","location":"142784, г.Москва, Киевское шоссе, 22-й км,\nБП ComCity, домовл.6, стр.1","phone":"8 (000) 123-45-67","mobilePhone":"8 (000) 123-45-67","id":106},"header":"Лифт не поднимает / не опускает","text":"Some text 1","createDate":1575014556489,"lastEditDate":1575014556493,"ticketState":"Выполняется","ticketStateId":1,"serviceId":2913,"syncMask":"PORTAL_ONLY","location":"default location","address":"default location","taskId":149677,"taskState":"Решена","taskStateId":2,"categories":["Технологическое оборудование","Подъемные и передвижные механизмы","Эскалатор, лифт, подъемник"],"category1":"Технологическое оборудование","category2":"Подъемные и передвижные механизмы","category3":"Эскалатор, лифт, подъемник","canBeCanceled":false,"openCommunications":0,"totalCommunications":0,"actions":["solveTicket","cancelTicket","inventoryNumberChange","slaDateChange","comment"]}],"last":false,"totalElements":363,"totalPages":37,"size":10,"number":0,"sort":[{"direction":"DESC","property":"id","ignoreCase":false,"nullHandling":"NATIVE","ascending":false,"descending":true}],"numberOfElements":10,"first":true}